<?xml version="1.0" encoding="UTF-8" standalone="no"?>
<!DOCTYPE svg PUBLIC "-//W3C//DTD SVG 1.1//EN" "http://www.w3.org/Graphics/SVG/1.1/DTD/svg11.dtd">
<svg version="1.1" xmlns="http://www.w3.org/2000/svg" xmlns:xlink="http://www.w3.org/1999/xlink" preserveAspectRatio="xMidYMid meet" viewBox="0 0 650 650" width="650" height="650"><defs><path d="M0 250L0 0L650 0L650 250L0 250ZM50 200L600 200L600 50L50 50L50 200ZM100.56 150L100.56 100L384.25 100L384.25 150L100.56 150Z" id="afbcDOWO1"></path><path d="M0 300L50 300L50 350L0 350L0 300Z" id="a1TvysQKoi"></path><path d="M0 500L50 500L50 550L0 550L0 500Z" id="autowXGXs"></path><path d="M0 600L50 600L50 650L0 650L0 600Z" id="b2FaULOat"></path><path d="M600 500L650 500L650 550L600 550L600 500Z" id="dmG3YUZXs"></path><path d="M600 600L650 600L650 650L600 650L600 600Z" id="bWbUufIuj"></path><path d="M500 600L550 600L550 650L500 650L500 600Z" id="b1kQASghvt"></path><path d="M400 600L450 600L450 650L400 650L400 600Z" id="itN4LlYXn"></path><path d="M300 600L350 600L350 650L300 650L300 600Z" id="a3AwFlunI1"></path><path d="M200 600L250 600L250 650L200 650L200 600Z" id="beANCmTwm"></path><path d="M100 600L150 600L150 650L100 650L100 600Z" id="h5UBsLuJoV"></path><path d="M0 400L50 400L50 450L0 450L0 400Z" id="cWqc5AIm9"></path><path d="M600 300L650 300L650 350L600 350L600 300Z" id="c2vk42fxyz"></path><path d="M600 400L650 400L650 450L600 450L600 400Z" id="a8y1BvoWE"></path></defs><g><g><g><use xlink:href="#afbcDOWO1" opacity="1" fill="#000000" fill-opacity="1"></use></g><g><use xlink:href="#a1TvysQKoi" opacity="1" fill="#000000" fill-opacity="1"></use></g><g><use xlink:href="#autowXGXs" opacity="1" fill="#000000" fill-opacity="1"></use></g><g><use xlink:href="#b2FaULOat" opacity="1" fill="#000000" fill-opacity="1"></use></g><g><use xlink:href="#dmG3YUZXs" opacity="1" fill="#000000" fill-opacity="1"></use></g><g><use xlink:href="#bWbUufIuj" opacity="1" fill="#000000" fill-opacity="1"></use></g><g><use xlink:href="#b1kQASghvt" opacity="1" fill="#000000" fill-opacity="1"></use></g><g><use xlink:href="#itN4LlYXn" opacity="1" fill="#000000" fill-opacity="1"></use></g><g><use xlink:href="#a3AwFlunI1" opacity="1" fill="#000000" fill-opacity="1"></use></g><g><use xlink:href="#beANCmTwm" opacity="1" fill="#000000" fill-opacity="1"></use></g><g><use xlink:href="#h5UBsLuJoV" opacity="1" fill="#000000" fill-opacity="1"></use></g><g><use xlink:href="#cWqc5AIm9" opacity="1" fill="#000000" fill-opacity="1"></use></g><g><use xlink:href="#c2vk42fxyz" opacity="1" fill="#000000" fill-opacity="1"></use></g><g><use xlink:href="#a8y1BvoWE" opacity="1" fill="#000000" fill-opacity="1"></use></g></g></g></svg>
